<?xml version="1.0" standalone="no"?><!DOCTYPE svg PUBLIC "-//W3C//DTD SVG 1.1//EN" "http://www.w3.org/Graphics/SVG/1.1/DTD/svg11.dtd">
<svg class="icon" width="200px" height="200.00px" viewBox="0 0 1024 1024" version="1.1" xmlns="http://www.w3.org/2000/svg">
	<path d='M339.2 917.333333c-66.133333 0-130.133333-25.6-177.066667-72.533333l-2.133333-2.133333c-96-100.266667-93.866667-260.266667 6.4-358.4 87.466667-85.333333 219.733333-93.866667 317.866667-27.733334l130.133333-130.133333 209.066667-209.066667c17.066667-17.066667 42.666667-17.066667 59.733333 0s17.066667 42.666667 0 59.733334l-46.933333 46.933333 83.2 83.2c17.066667 17.066667 17.066667 42.666667 0 59.733333L789.333333 503.466667c-17.066667 17.066667-42.666667 17.066667-59.733333 0l-83.2-83.2-98.133333 98.133333c70.4 98.133333 61.866667 234.666667-25.6 324.266667-51.2 46.933333-113.066667 74.666667-183.466667 74.666666 2.133333 0 2.133333 0 0 0z m2.133333-418.133333c-42.666667 0-83.2 14.933333-115.2 46.933333-66.133333 64-68.266667 170.666667-4.266666 236.8l2.133333 2.133334C256 814.933333 296.533333 832 341.333333 832h2.133334c44.8 0 87.466667-17.066667 117.333333-49.066667 64-66.133333 64-170.666667 0-234.666666-36.266667-34.133333-76.8-49.066667-119.466667-49.066667z m362.666667-140.8l53.333333 53.333333 72.533334-72.533333-53.333334-53.333333-72.533333 72.533333z' />
</svg>