<?xml version="1.0" standalone="no"?><!DOCTYPE svg PUBLIC "-//W3C//DTD SVG 1.1//EN" "http://www.w3.org/Graphics/SVG/1.1/DTD/svg11.dtd">
<svg class="icon" width="200px" height="200.00px" viewBox="0 0 1024 1024" version="1.1" xmlns="http://www.w3.org/2000/svg">
	<path d='M725.333333 384V298.666667A213.333333 213.333333 0 0 0 298.666667 298.666667v85.333333a128 128 0 0 0-128 128v298.666667a128 128 0 0 0 128 128h426.666666a128 128 0 0 0 128-128v-298.666667a128 128 0 0 0-128-128zM384 298.666667a128 128 0 0 1 256 0v85.333333H384z m384 512a42.666667 42.666667 0 0 1-42.666667 42.666666H298.666667a42.666667 42.666667 0 0 1-42.666667-42.666666v-298.666667a42.666667 42.666667 0 0 1 42.666667-42.666667h426.666666a42.666667 42.666667 0 0 1 42.666667 42.666667z' />
</svg>