<?xml version="1.0" standalone="no"?><!DOCTYPE svg PUBLIC "-//W3C//DTD SVG 1.1//EN" "http://www.w3.org/Graphics/SVG/1.1/DTD/svg11.dtd">
<svg class="icon" width="200px" height="200.00px" viewBox="0 0 1024 1024" version="1.1" xmlns="http://www.w3.org/2000/svg">
	<path d='M 869.58676,150.2331 H 735.41718 V 93.804617 A 33.488733,33.8029 0 0 0 701.87477,59.947555 33.488733,33.8029 0 0 0 668.33237,93.804617 V 150.2331 H 355.26994 V 93.804617 a 33.488733,33.8029 0 0 0 -33.5424,-33.857062 33.488733,33.8029 0 0 0 -33.5424,33.857062 V 150.2331 H 154.01552 c -49.41913,0 -89.446396,40.40275 -89.446396,90.28552 v 631.9987 c 0,49.88275 40.027266,90.28554 89.446396,90.28554 h 715.57124 c 49.41914,0 89.44642,-40.40279 89.44642,-90.28554 v -631.9987 c 0,-49.88277 -40.02728,-90.28552 -89.44642,-90.28552 z m 22.36163,699.71284 c 0,24.89171 -20.06283,45.14277 -44.7232,45.14277 H 176.37712 c -24.66035,0 -44.72318,-20.25106 -44.72318,-45.14277 V 263.09 c 0,-24.89173 20.06283,-45.14278 44.72318,-45.14278 h 111.80802 v 56.42846 a 33.488733,33.8029 0 0 0 33.5424,33.85708 33.488733,33.8029 0 0 0 33.5424,-33.85708 v -56.42846 h 313.06243 v 56.42846 a 33.488733,33.8029 0 0 0 33.5424,33.85708 33.488733,33.8029 0 0 0 33.54241,-33.85708 v -56.42846 h 111.80801 c 24.66037,0 44.7232,20.25105 44.7232,45.14278 z M 456.79161,643.0747 c 33.24723,-24.68408 55.00955,-64.28329 55.00955,-109.1281 0,-74.76547 -60.09905,-135.42828 -134.16964,-135.42828 -74.07054,0 -134.16956,60.66281 -134.16956,135.42828 0,44.84481 21.66389,84.44402 55.00952,109.1281 -52.61238,26.30018 -90.4482,77.98865 -98.03326,139.15708 h 67.6841 c 10.37576,-51.48983 55.50148,-90.28552 109.5092,-90.28552 54.00776,0 99.23187,38.79569 109.50926,90.28552 h 67.68408 C 547.33819,721.06335 509.50238,669.37488 456.79161,643.0747 Z m -79.16009,-41.41396 c -37.03079,0 -67.08478,-30.33595 -67.08478,-67.71414 0,-37.37823 30.05399,-67.71418 67.08478,-67.71418 37.03084,0 67.08483,30.33595 67.08483,67.71418 0,37.37819 -30.05399,67.71414 -67.08483,67.71414 z m 368.96644,45.14273 h -67.08482 a 33.488733,33.8029 0 0 0 -33.5424,33.8571 33.488733,33.8029 0 0 0 33.5424,33.85708 h 67.08482 a 33.488733,33.8029 0 0 0 33.54241,-33.85708 33.488733,33.8029 0 0 0 -33.54241,-33.8571 z m 44.72321,-180.57105 h -156.5312 a 33.488733,33.8029 0 0 0 -33.54241,33.85711 33.488733,33.8029 0 0 0 33.54241,33.85707 h 156.5312 a 33.488733,33.8029 0 0 0 33.54239,-33.85707 33.488733,33.8029 0 0 0 -33.54239,-33.85711 z' />
</svg>